{
  "contacts": [
    {
      "id": "6tQCw05TNWJcjWv3Yrr1",
      "locationId": "HzttFvMOh41pAjozlxkS",
      "contactName": "lisa mcguire",
      "firstName": "lisa",
      "lastName": "mcguire",
      "email": "lmcguire1129@gmail.com",
      "phone": "+15852831663",
      "dnd": false,
      "type": "lead",
      "source": "Download Brochure - Investment Page",
      "tags": ["lead"],
      "country": "US",
      "timezone": "America/New_York",
      "dateAdded": "2026-02-08T01:24:13.793Z",
      "dateUpdated": "2026-02-08T01:25:06.947Z",
      "customFields": [
        {
          "id": "QiGOxtZBgCpkXzVoML0t",
          "value": "I want to throw a great Gatsby roaring 20s themed birthday in November "
        },
        {
          "id": "Cw6gZmLRN2yDXO3bDfvd",
          "value": 1770422400000
        }
      ]
    }
  ],
  "meta": {
    "total": 7733,
    "currentPage": 1,
    "nextPage": 2
  },
  "traceId": "4e7e0cdd-20eb-45c5-81ce-693ac5b30428"
}
